<?xml version="1.0" encoding="UTF-8" standalone="no"?>
<svg width="34px" height="34px" viewBox="0 0 36 36" version="1.1" xmlns="http://www.w3.org/2000/svg" xmlns:xlink="http://www.w3.org/1999/xlink" xmlns:sketch="http://www.bohemiancoding.com/sketch/ns">
    <!-- Generator: Sketch 3.2.2 (9983) - http://www.bohemiancoding.com/sketch -->
    <title>btn: import</title>
    <desc>Created with Sketch.</desc>
    <defs></defs>
    <g id="WebApp" stroke="none" stroke-width="1" fill="none" fill-rule="evenodd" sketch:type="MSPage">
        <g id="Dashboard" sketch:type="MSArtboardGroup" transform="translate(-1052.000000, -193.000000)" fill="#000000">
            <g id="dashboard" sketch:type="MSLayerGroup" transform="translate(0.000000, 80.000000)">
                <g id="btn:-import" transform="translate(1052.000000, 113.000000)" sketch:type="MSShapeGroup">
                    <rect id="btn" stroke-opacity="0.25" stroke="#000000" fill-opacity="0.01" x="1" y="1" width="34" height="34" rx="17"></rect>
                    <path d="M18,17.5814897 L18,24.4991928 C18,24.7752664 17.776,25 17.5,25 C17.224,25 17,24.7752664 17,24.4991928 L17,17.5814897 L14.833,19.818 C14.643,20.016 14.333,20.016 14.143,19.818 C13.952,19.622 13.952,19.303 14.143,19.106 L17.0647249,16.0895895 C17.0857258,16.0518758 17.1118175,16.0163253 17.143,15.984 C17.2409943,15.8829112 17.3709095,15.8339598 17.4998186,15.837146 C17.628591,15.8339598 17.75849,15.8829112 17.857,15.984 C17.8881825,16.0163253 17.9142742,16.0518758 17.9352751,16.0895895 L20.857,19.106 C21.048,19.303 21.048,19.622 20.857,19.818 C20.666,20.016 20.357,20.016 20.167,19.818 L18,17.5814897 Z M22,21.4227474 C23.1894317,20.7740268 24,19.4845154 24,17.999 C24,15.935655 22.436208,14.2495202 20.4654579,14.1342825 C20.2255802,12.3798124 18.7654386,11.031 17,11.031 C15.067,11.031 13.5,12.648 13.5,14.644 L13.5,14.644 C11.567,14.644 10,16.262 10,18.257 C10,20.0767943 11.3038505,21.5820669 13,21.8324246 L13,22.8736403 C10.7502433,22.6168391 9,20.6475568 9,18.257 C9,16.0122383 10.5420634,14.1394086 12.591836,13.7056696 L12.591836,13.7056696 C13.012247,11.5897229 14.8263159,9.999 17,9.999 C19.0010604,9.999 20.6973556,11.3471 21.2821523,13.2120255 C23.4096055,13.6984081 25,15.6568244 25,17.999 C25,20.0691621 23.7575623,21.8395261 22,22.5586544 L22,21.4227474 L22,21.4227474 Z" id="icon" opacity="0.35"></path>
                </g>
            </g>
        </g>
    </g>
</svg>